{
	"AssetInfoVersion": 2,
	"ShaderCodeToAssets": [
		{
			"ShaderMapHash": "7BB282A9000D12D0F62618F4C20CEC266C1D7484",
			"Assets": [
				"/Engine/EditorMaterials/LevelGridMaterial2"
			]
		},
		{
			"ShaderMapHash": "0BE435D1C88DD159EC9F38A3E73A6A82B796AEDA",
			"Assets": [
				"/Game/Geometry/Meshes/CubeMaterial"
			]
		},
		{
			"ShaderMapHash": "2D4260BD836FEA644A87ADC225F354559D8160E5",
			"Assets": [
				"/Engine/EngineMaterials/AntiAliasedTextMaterialTranslucent"
			]
		},
		{
			"ShaderMapHash": "E1049B6DDD17D78668334CC1810263528A5BB54A",
			"Assets": [
				"/Game/StarterContent/Materials/M_Water_Lake"
			]
		},
		{
			"ShaderMapHash": "12B425F9536CA0D30D7073D11CDD9F49865AA78C",
			"Assets": [
				"/Engine/EngineSky/M_Sky_Panning_Clouds2"
			]
		},
		{
			"ShaderMapHash": "E38C997F3E0645C6919A7FE8EDCB6241935FFD23",
			"Assets": [
				"/Game/FPWeapon/Materials/M_FPGun"
			]
		},
		{
			"ShaderMapHash": "6F37C3F960CA2CE6B112B3C9DBB51A1C64F70B46",
			"Assets": [
				"/Game/FirstPerson/Character/Materials/M_UE4Man_Body"
			]
		},
		{
			"ShaderMapHash": "D55EE6B1683573A52516C9087F652EC0EB710CA9",
			"Assets": [
				"/Game/FirstPerson/Meshes/BaseMaterial"
			]
		},
		{
			"ShaderMapHash": "0BD8E0222E24B02452BF0CFDCA8196657C49F621",
			"Assets": [
				"/Game/StarterContent/Materials/M_Metal_Gold"
			]
		},
		{
			"ShaderMapHash": "09B4B44188F833B6A9A1BA24C17B43CB6EF9E657",
			"Assets": [
				"/Engine/EngineResources/M_StreamingPause"
			]
		},
		{
			"ShaderMapHash": "93E5CD99A80D24DCE1C306DCEB6F07D643972AFA",
			"Assets": [
				"/Engine/EngineMaterials/BlinkingCaret"
			]
		},
		{
			"ShaderMapHash": "913961ED08FF4DDB7B4D9F585B2C763D18AEA5C5",
			"Assets": [
				"/Engine/EditorMaterials/LevelGridMaterial"
			]
		},
		{
			"ShaderMapHash": "0DA125BC7EDB4574DDCFD4A5176AF2E8E4337D80",
			"Assets": [
				"/Engine/EditorMaterials/WidgetVertexColorMaterial"
			]
		},
		{
			"ShaderMapHash": "DB09F9980AB47409695B7ABF4E37B9BF16EDF6BC",
			"Assets": [
				"/Engine/EditorMaterials/WidgetMaterial_Z"
			]
		},
		{
			"ShaderMapHash": "5F87FD8D6B7F2341FCFAB7FC3BFD564A180CD6B9",
			"Assets": [
				"/Engine/EditorMaterials/WidgetMaterial_Y"
			]
		},
		{
			"ShaderMapHash": "BE91CA71EF1B20B9B7ED5F5E7138F2E81AA1DBAB",
			"Assets": [
				"/Engine/EditorMaterials/WidgetMaterial_X"
			]
		},
		{
			"ShaderMapHash": "AA91588B4B183A93C93EC6A1054DB67D11B501EA",
			"Assets": [
				"/Engine/EditorMaterials/WidgetMaterial_Current"
			]
		},
		{
			"ShaderMapHash": "F082599FCD1473EF660333C379FAC1B88FD5255F",
			"Assets": [
				"/Engine/EditorMaterials/WidgetMaterial"
			]
		},
		{
			"ShaderMapHash": "BF45F49857FA1D3FAE6228A0DC91A43A53EC99C3",
			"Assets": [
				"/Engine/EditorMaterials/WidgetGridVertexColorMaterial_Ma"
			]
		},
		{
			"ShaderMapHash": "26CC5AC68CF4F3C4939EAA9EEC5CA7D3E1FC776C",
			"Assets": [
				"/Engine/EditorMaterials/Tick_Mat"
			]
		},
		{
			"ShaderMapHash": "FA8CE80783432ECD89F704CDDF647B605FAFEFFF",
			"Assets": [
				"/Engine/EditorMaterials/PhAT_UnselectedMaterial"
			]
		},
		{
			"ShaderMapHash": "961B2D3CA138620C25541BF9348D23972D48EDBF",
			"Assets": [
				"/Engine/EditorMaterials/PhAT_NoCollisionMaterial"
			]
		},
		{
			"ShaderMapHash": "93527B78E7DD6C185F80FB2CA508E43CFC143E9B",
			"Assets": [
				"/Engine/EditorMaterials/PhAT_ElemSelectedMaterial"
			]
		},
		{
			"ShaderMapHash": "89EFEFA385F602CA701404449DC93798CFB73753",
			"Assets": [
				"/Engine/EditorMaterials/PhAT_BoneSelectedMaterial"
			]
		},
		{
			"ShaderMapHash": "9A5B1791EF0E1759069BE30001E0F9A184B62C57",
			"Assets": [
				"/Engine/EditorMaterials/Cross_Mat"
			]
		},
		{
			"ShaderMapHash": "2999643345C5DB8E4B990FC067EEAF6E75FC959E",
			"Assets": [
				"/Engine/EngineMaterials/BaseFlattenMaterial_VT",
				"/Engine/EngineMaterials/BaseFlattenMaterial"
			]
		},
		{
			"ShaderMapHash": "D29E2508BB0A7EAE0AA55715D227C95A795C81B4",
			"Assets": [
				"/Engine/EditorMaterials/PreviewShadowIndicatorMaterial"
			]
		},
		{
			"ShaderMapHash": "5B0E16437A04AF6FC92C82A0D597E1ACBAC88491",
			"Assets": [
				"/Engine/EngineDebugMaterials/PhysicalMaterialMaskMaterial"
			]
		},
		{
			"ShaderMapHash": "C48161ECD5F09A178699A1CBA6946801BD665F43",
			"Assets": [
				"/Engine/EngineDebugMaterials/DebugEditorMaterial"
			]
		},
		{
			"ShaderMapHash": "EA27451116FE40BC38C509C11F1BA99D6A02C8D7",
			"Assets": [
				"/Engine/EngineDebugMaterials/ClothMaterial_WF"
			]
		},
		{
			"ShaderMapHash": "D108793416002A1C89B6956F3D1CD99C2148607C",
			"Assets": [
				"/Engine/EngineDebugMaterials/ClothMaterial"
			]
		},
		{
			"ShaderMapHash": "CA9FC43C8D95B249ED166D495ED56AEEF650932D",
			"Assets": [
				"/Engine/EngineDebugMaterials/BoneWeightMaterial"
			]
		},
		{
			"ShaderMapHash": "871FAC0036D26615DDBCB623823E8356624B07C9",
			"Assets": [
				"/Engine/EngineMaterials/EditorBrushMaterial"
			]
		},
		{
			"ShaderMapHash": "5E273AD012C7253EFF9DD2FEA82A76A8267E5D5A",
			"Assets": [
				"/Engine/EngineDebugMaterials/GeomMaterial",
				"/Engine/EngineDebugMaterials/M_SimpleUnlitTranslucent"
			]
		},
		{
			"ShaderMapHash": "8B5BB8DDA893BF4C557F4D98F38BE2BA736C29CB",
			"Assets": [
				"/Engine/EngineMaterials/PhAT_JointLimitMaterial"
			]
		},
		{
			"ShaderMapHash": "9875E0D516869E1A1316AEF7568E5829BD778201",
			"Assets": [
				"/Engine/EngineMaterials/GizmoMaterial"
			]
		},
		{
			"ShaderMapHash": "94CA63D602A29EBFCE03D77CCED136AC9F3992CF",
			"Assets": [
				"/Engine/EngineMaterials/M_InvalidLightmapSettings"
			]
		},
		{
			"ShaderMapHash": "A211C2305302ECCEA569544F8BFE817031ED2C63",
			"Assets": [
				"/Engine/EngineMaterials/EmissiveMeshMaterial"
			]
		},
		{
			"ShaderMapHash": "170A679EAAC44828C89795704AF4A1221AC8D3E9",
			"Assets": [
				"/Engine/EngineDebugMaterials/DebugMeshMaterial"
			]
		},
		{
			"ShaderMapHash": "813F45DF7CE0F0CA00408D9AC89070BFA2D0F2DA",
			"Assets": [
				"/Engine/EngineMaterials/RemoveSurfaceMaterial"
			]
		},
		{
			"ShaderMapHash": "CB8BC02814D46F5160C55D5D50C20252A9FA9149",
			"Assets": [
				"/Engine/EngineDebugMaterials/VertexColorViewMode_BlueOnly"
			]
		},
		{
			"ShaderMapHash": "EF5D1D02862B607FE08EEDE71C61F75EC539F3B5",
			"Assets": [
				"/Engine/EngineDebugMaterials/VertexColorViewMode_GreenOnly"
			]
		},
		{
			"ShaderMapHash": "4C13A231A59095D68E268AB5AB172AA8D19E2226",
			"Assets": [
				"/Engine/EngineDebugMaterials/VertexColorViewMode_RedOnly"
			]
		},
		{
			"ShaderMapHash": "6AB555B0B23C26DAA852A82EBB86611F03B5FE43",
			"Assets": [
				"/Engine/EngineDebugMaterials/VertexColorViewMode_AlphaAsColor"
			]
		},
		{
			"ShaderMapHash": "0B2E15BBD22A83B42F7B6A70616D6335EAA9E7DD",
			"Assets": [
				"/Engine/EngineDebugMaterials/VertexColorViewMode_ColorOnly"
			]
		},
		{
			"ShaderMapHash": "FC8547F9BBC288823DF3E28BC0761BF3AAFC76E3",
			"Assets": [
				"/Engine/EngineDebugMaterials/ShadedLevelColorationUnlitMateri"
			]
		},
		{
			"ShaderMapHash": "78C87AD01483A0C0EBE6F7EF0DE60C5B82DC56FD",
			"Assets": [
				"/Engine/EngineDebugMaterials/ShadedLevelColorationLitMaterial"
			]
		},
		{
			"ShaderMapHash": "5CD9AEDEC90AEE2785052170A76DFA2DE5C6A47F",
			"Assets": [
				"/Engine/EngineDebugMaterials/MAT_LevelColorationLitLightmapUV"
			]
		},
		{
			"ShaderMapHash": "463005E8F830E19CA40FE0ED46C4BB2C8D36DE80",
			"Assets": [
				"/Engine/EngineDebugMaterials/LevelColorationUnlitMaterial"
			]
		},
		{
			"ShaderMapHash": "D783E23D4DE8C9DB8B29F09467F2C27F04E0C0FD",
			"Assets": [
				"/Engine/EngineDebugMaterials/LevelColorationLitMaterial"
			]
		},
		{
			"ShaderMapHash": "11F07C80136C6C63D5F10F856CCC02354A20178E",
			"Assets": [
				"/Engine/EngineMaterials/HighResScreenshotCaptureRegion"
			]
		},
		{
			"ShaderMapHash": "8CE1857CA8C9A93FBEF9265D0D5EE1C86BB3FF88",
			"Assets": [
				"/Engine/EngineMaterials/HighResScreenshotMask"
			]
		},
		{
			"ShaderMapHash": "D26DDE2D5C98E00661026DE4E46A95A96A087895",
			"Assets": [
				"/Engine/EngineMaterials/HighResScreenshot"
			]
		},
		{
			"ShaderMapHash": "6A62D28913E7442EA7A5A3C94EC775637E85555B",
			"Assets": [
				"/OculusVR/Materials/OculusMR_OpaqueColoredMaterial",
				"/Engine/ArtTools/RenderToTexture/Materials/Debug/M_Emissive_Color"
			]
		},
		{
			"ShaderMapHash": "52EA8C3582452BA465B0BDE47CAC23806B335EA9",
			"Assets": [
				"/OculusVR/Materials/OculusMR_ChromaKey"
			]
		},
		{
			"ShaderMapHash": "BB0A8E5BCF9776AEED15B3F360DCB11149354E05",
			"Assets": [
				"/Engine/EngineDebugMaterials/M_VolumeRenderSphereTracePP"
			]
		},
		{
			"ShaderMapHash": "600FA420F2E3D903D0137E0003D1F072754227C6",
			"Assets": [
				"/SpeedTreeImporter/SpeedTree9/SpeedTreeBillboardMaster"
			]
		},
		{
			"ShaderMapHash": "247680B120708B243543974BDC495A6A05330A57",
			"Assets": [
				"/SpeedTreeImporter/SpeedTree9/SpeedTreeMaster"
			]
		},
		{
			"ShaderMapHash": "A6EF1E70B07D9317007463DF10E7D7B78DD49897",
			"Assets": [
				"/Engine/EngineDebugMaterials/WireframeMaterial"
			]
		},
		{
			"ShaderMapHash": "8ABF688865F1B61B7D08AF2F5C339ED3BDC57FE9",
			"Assets": [
				"/Engine/EngineDebugMaterials/VertexColorMaterial"
			]
		},
		{
			"ShaderMapHash": "7CAC82C93AB7DADFF7530A06CC5AD606D62EDC5D",
			"Assets": [
				"/Engine/EngineMaterials/DefaultMaterial"
			]
		},
		{
			"ShaderMapHash": "9E3D0A1C93FED3B6873BFE865ABFDD46A67DA728",
			"Assets": [
				"/Engine/BufferVisualization/PostTonemapHDRColor"
			]
		},
		{
			"ShaderMapHash": "3B63F948FE7C622DBA3D70595509144C44028091",
			"Assets": [
				"/Engine/BufferVisualization/PreTonemapHDRColor"
			]
		},
		{
			"ShaderMapHash": "74E1614985FDD047C386EFE9FD98BE4FCEA04A75",
			"Assets": [
				"/Engine/BufferVisualization/Velocity"
			]
		},
		{
			"ShaderMapHash": "DBE87915A6E20CBABF48226C1FE0DC7D2B5D1225",
			"Assets": [
				"/Engine/BufferVisualization/SceneDepthWorldUnits"
			]
		},
		{
			"ShaderMapHash": "4871DA98AF1248FD0FEEB6D68528DE47D4D33D53",
			"Assets": [
				"/Engine/BufferVisualization/CustomDepthWorldUnits"
			]
		},
		{
			"ShaderMapHash": "44D31ABF51ABAADEE2B5D432DAB5B610267E3DE9",
			"Assets": [
				"/Engine/BufferVisualization/AmbientOcclusion"
			]
		},
		{
			"ShaderMapHash": "93610EDC571BB528565BD6C67EE79BB9BAC7E1CB",
			"Assets": [
				"/Engine/BufferVisualization/WorldTangent"
			]
		},
		{
			"ShaderMapHash": "71DE2CF7487A53A88C5EB918DADD33B8C2E3F7E6",
			"Assets": [
				"/Engine/BufferVisualization/WorldNormal"
			]
		},
		{
			"ShaderMapHash": "B8C6F41ED0766F710E7A52E47620A43A6D42D23B",
			"Assets": [
				"/Engine/BufferVisualization/SubsurfaceColor"
			]
		},
		{
			"ShaderMapHash": "1F320A1723714313A5D5CFF63108740BEB07A14B",
			"Assets": [
				"/Engine/BufferVisualization/Specular"
			]
		},
		{
			"ShaderMapHash": "F01211888D2FAB49638844F33D989067616AA59B",
			"Assets": [
				"/Engine/BufferVisualization/SeparateTranslucencyA"
			]
		},
		{
			"ShaderMapHash": "31E26F2B52C1DDB192BA4DB7178EC41120F3D70F",
			"Assets": [
				"/Engine/BufferVisualization/SeparateTranslucencyRGB"
			]
		},
		{
			"ShaderMapHash": "B0AC5ABF8CD5C466D68E07E6AE93E7BBD2276B6C",
			"Assets": [
				"/Engine/BufferVisualization/SceneDepth"
			]
		},
		{
			"ShaderMapHash": "34B282AE9D9752CB29AA5F16D42A13A0E91F68AE",
			"Assets": [
				"/Engine/BufferVisualization/SceneColor"
			]
		},
		{
			"ShaderMapHash": "806383BBD8B4DC096A0F5568BD6B67082F778A5B",
			"Assets": [
				"/Engine/BufferVisualization/Anisotropy"
			]
		},
		{
			"ShaderMapHash": "FA2BB66976C26DB91C9623F08BCC58785FCC5D9D",
			"Assets": [
				"/Engine/BufferVisualization/Roughness"
			]
		},
		{
			"ShaderMapHash": "157359283A8F0672D774003FCF40877E78B60418",
			"Assets": [
				"/Engine/BufferVisualization/Opacity"
			]
		},
		{
			"ShaderMapHash": "DD2E2D2ABB92C76F840F99F2B6FB945F4DB406C5",
			"Assets": [
				"/Engine/BufferVisualization/Metallic"
			]
		},
		{
			"ShaderMapHash": "0953DF6DD84D5A231D1B945975974AB380B247D3",
			"Assets": [
				"/Engine/BufferVisualization/MaterialAO"
			]
		},
		{
			"ShaderMapHash": "4608E02C14B63F66E6A247F31775B0F70E2F5F26",
			"Assets": [
				"/Engine/BufferVisualization/LightingModel"
			]
		},
		{
			"ShaderMapHash": "541CACA0C7D7F5477C19FDB4D82970044A2E6AFE",
			"Assets": [
				"/Engine/BufferVisualization/FinalImage"
			]
		},
		{
			"ShaderMapHash": "1DBB1B2FFDCE67771F9DFDECC1F412A333244B29",
			"Assets": [
				"/Engine/BufferVisualization/CustomStencil"
			]
		},
		{
			"ShaderMapHash": "6070E06BBE50830F825E7D349B1E9A16EAA069DC",
			"Assets": [
				"/Engine/BufferVisualization/CustomDepth"
			]
		},
		{
			"ShaderMapHash": "F7809A6FACBAE542E72E3F246CF1C9A4828AB35A",
			"Assets": [
				"/Engine/BufferVisualization/BaseColor"
			]
		},
		{
			"ShaderMapHash": "89A8742C671CB982F827BE38C61DE0DE12EA265B",
			"Assets": [
				"/Paper2D/OpaqueUnlitSpriteMaterial"
			]
		},
		{
			"ShaderMapHash": "A3864F224215B9454E3518E34777385FA3E5DC16",
			"Assets": [
				"/Paper2D/DefaultSpriteMaterial"
			]
		},
		{
			"ShaderMapHash": "AACF318CF6DA7F3E8F22C27DE616D346692E8EEF",
			"Assets": [
				"/OculusVR/Materials/PokeAHoleMaterial"
			]
		},
		{
			"ShaderMapHash": "632935D8F2D7A1A080CD94B007DD68C8711200FB",
			"Assets": [
				"/HairStrands/Materials/HairMeshesDefaultMaterial",
				"/HairStrands/Materials/HairDefaultMaterial"
			]
		},
		{
			"ShaderMapHash": "5BE4CA00DF1BB4D25826CC46691547DF5D9885A3",
			"Assets": [
				"/HairStrands/Materials/HairCardsDefaultMaterial"
			]
		},
		{
			"ShaderMapHash": "05AFB3B048E3A0554537EDE1B1C73A1C004585C3",
			"Assets": [
				"/HairStrands/Materials/HairDebugMaterial"
			]
		},
		{
			"ShaderMapHash": "942A83D3B75EC34CF10F0B6D5923AB90F06E8273",
			"Assets": [
				"/Engine/EditorLandscapeResources/SplineEditorMeshMat"
			]
		},
		{
			"ShaderMapHash": "A074EEFDA249ECE51851C5BCE2FDD0EC604CACBA",
			"Assets": [
				"/Engine/EditorLandscapeResources/LandscapeGizmoHeight_Mat"
			]
		},
		{
			"ShaderMapHash": "61F59BBEB169EFA314C363CB38382D010B535733",
			"Assets": [
				"/Engine/EditorLandscapeResources/LandscapeGizmo_Mat_Copied",
				"/Engine/EditorLandscapeResources/LandscapeGizmo_Mat"
			]
		},
		{
			"ShaderMapHash": "FF25908251A277A72E51C3B73F9F91CE1BD0BC85",
			"Assets": [
				"/Engine/EditorMaterials/Thumbnails/FloorPlaneMaterial",
				"/Engine/EditorMaterials/Thumbnails/SkySphereMaterial"
			]
		},
		{
			"ShaderMapHash": "3DFBE1E1A03F8E1F6449C7CED144E4BAEC2EA957",
			"Assets": [
				"/Engine/EngineDebugMaterials/M_SimpleOpaque",
				"/Engine/VREditor/TransformGizmo/Xray"
			]
		},
		{
			"ShaderMapHash": "4C52C4FC9C399FFF93437D855F006FD112832834",
			"Assets": [
				"/Engine/EditorMaterials/Camera/CineMat"
			]
		},
		{
			"ShaderMapHash": "6A2FC7D81D6860F419FB654D013A1288E9C9B728",
			"Assets": [
				"/Engine/VREditor/TransformGizmo/TranslucentTransformGizmoMaterial"
			]
		},
		{
			"ShaderMapHash": "5A06EF93F2E25B45CFA16C0EEFB11E4E19FBBA3F",
			"Assets": [
				"/Engine/VREditor/TransformGizmo/TransformGizmoMaterial"
			]
		},
		{
			"ShaderMapHash": "7EB24BD4B3C64577EEE9F5BB46E02926253E4F4B",
			"Assets": [
				"/Engine/EngineMaterials/Widget3DCameraPassThrough_Opaque_OneSided"
			]
		},
		{
			"ShaderMapHash": "733BFD13EFD916BD067AD1401114AA7C8275757A",
			"Assets": [
				"/Engine/EngineMaterials/Widget3DPassThrough_Masked_OneSided"
			]
		},
		{
			"ShaderMapHash": "3D79D2042375912EC140480062702A127862B63D",
			"Assets": [
				"/Engine/EngineMaterials/Widget3DPassThrough_Masked"
			]
		},
		{
			"ShaderMapHash": "8A82A91B3567A6EE29EA1A670258EEDBE8BDD01B",
			"Assets": [
				"/Engine/EngineMaterials/Widget3DPassThrough_Opaque_OneSided"
			]
		},
		{
			"ShaderMapHash": "4A75448EBD97FEBCE61CBF591704949C1D631196",
			"Assets": [
				"/Engine/EngineMaterials/Widget3DPassThrough_Opaque"
			]
		},
		{
			"ShaderMapHash": "52C579D8291EDBD2270FD731F108D712BF7A7A86",
			"Assets": [
				"/Engine/EngineMaterials/Widget3DPassThrough_Translucent_OneSided",
				"/Engine/EngineMaterials/Widget3DPassThrough"
			]
		},
		{
			"ShaderMapHash": "F80FB8F8308C8B5625190F3150823CDDD9C49A81",
			"Assets": [
				"/Engine/EngineMaterials/Widget3DPassThrough_Translucent"
			]
		},
		{
			"ShaderMapHash": "BB891F3714FA23AC5BC2428A098E17080D3357B8",
			"Assets": [
				"/Engine/VREditor/TransformGizmo/Main"
			]
		},
		{
			"ShaderMapHash": "1025A6DAAADB9BB68E25F1A2A315BD73645FFF60",
			"Assets": [
				"/Engine/EditorMaterials/WorldPartition/WorldPartitionSpatialHashGridPreviewMaterial"
			]
		},
		{
			"ShaderMapHash": "F8853998FD27D266D6D3BA189739A4DEC508A7DF",
			"Assets": [
				"/Engine/EngineSky/VolumetricClouds/m_SimpleVolumetricCloud"
			]
		},
		{
			"ShaderMapHash": "BDCC975A2D64C54AD04B6FBFF751040449C01804",
			"Assets": [
				"/Engine/EngineMaterials/DefaultTextMaterialOpaque"
			]
		},
		{
			"ShaderMapHash": "D51247EB76D1EE7BFF15C56C7708F167831B2FE9",
			"Assets": [
				"/Engine/EditorMeshes/ColorCalibrator/M_ChromeBall"
			]
		},
		{
			"ShaderMapHash": "58C2F06CF9017B42C09F7C46A3F3994E65BFE0B4",
			"Assets": [
				"/Engine/EditorMaterials/HelpActorMaterial"
			]
		},
		{
			"ShaderMapHash": "F9F2FC0D101F73CFA6963E79C45CEB9FE42B1166",
			"Assets": [
				"/Engine/EngineMaterials/DefaultPostProcessMaterial"
			]
		},
		{
			"ShaderMapHash": "7D4E08CDB427B63E5B596A0F4F2860C034A166C9",
			"Assets": [
				"/Engine/EngineMaterials/DefaultLightFunctionMaterial"
			]
		},
		{
			"ShaderMapHash": "568937DBA9359E0B81AFE41FEC7C29A76607302E",
			"Assets": [
				"/Engine/EngineMaterials/DefaultDeferredDecalMaterial"
			]
		},
		{
			"ShaderMapHash": "B04DE1B7AE6862B0B2F0792B2F42ED4415E4F0C5",
			"Assets": [
				"/Engine/EngineMaterials/WorldGridMaterial"
			]
		},
		{
			"ShaderMapHash": "0E471DD6E975BDCCADC9A95CCB5A5F3ED03834F7",
			"Assets": [
				"/Engine/EditorMaterials/MatineeCam_mat"
			]
		}
	]
}